…
## Data from EU CDC updated

``` r
covid19.pt.new
#> # A tibble: 32 x 10
#>    dateRep   day month  year cases deaths countryterritor… geoId popData2018
#>    <chr>   <dbl> <dbl> <dbl> <dbl>  <dbl> <chr>            <chr>       <dbl>
#>  1 03/04/…     3     4  2020   783     22 PRT              PT       10281762
#>  2 02/04/…     2     4  2020   808     27 PRT              PT       10281762
#>  3 01/04/…     1     4  2020  1035     20 PRT              PT       10281762
#>  4 31/03/…    31     3  2020   446     21 PRT              PT       10281762
#>  5 30/03/…    30     3  2020   792     19 PRT              PT       10281762
#>  6 29/03/…    29     3  2020   902     24 PRT              PT       10281762
#>  7 28/03/…    28     3  2020   724     16 PRT              PT       10281762
#>  8 27/03/…    27     3  2020   549     17 PRT              PT       10281762
#>  9 26/03/…    26     3  2020   633     10 PRT              PT       10281762
#> 10 25/03/…    25     3  2020   302     10 PRT              PT       10281762
#> # … with 22 more rows, and 1 more variable: countriesAndTerritories <chr>
```
